
{"totalRecords":372,"totalPages":19,"startIndex":0,"endIndex":20,"control":{"currentPage":0,"pageSize":20},"records":[{"type":"camping","namingId":"EB_110453","namingLabel":"Coyote Hills Regional Park","id":110453,"name":"Coyote Hills Regional Park","targetItem":false,"matchingFilters":true,"reservableType":null,"available":false,"proximity":10.28,"summary":null,"details":{"id":110453,"contrCode":"EB","stateCodes":["CA"],"name":"Coyote Hills Regional Park","baseURL":"/camping/coyote-hills-regional-park/r/facilityDetails.do?contractCode=EB&parkId=110453","imageURL":"/webphotos/EB/pid110453/0/180x120.jpg","verifiableAvailability":true,"availability":null,"affiliation":{"facilityID":0,"name":"","url":null,"agencies":[{"id":110000,"code":"East Bay Parks","name":"East Bay Parks","logo":null,"url":null}]},"facilityTypes":["camping"],"description":null,"flexResult":null,"cta":{"caption":"label_cta_check_availability","url":null,"type":"REGULAR"},"dayUse":false,"dayUseOnly":false,"ratingSupport":false,"rating":null,"actvAdvInd":null,"favoriteSupport":true,"favorite":false,"webAddress":"www.ebparks.org/parks/coyote_hills","coordinates":{"latitude":37.5575,"latitudeDec":null,"latitudeDegMinSec":null,"longitude":-122.0858333,"longitudeDec":null,"longitudeDegMinSec":null},"hiddenOnMap":false,"crossOverCustomLanding":false,"legacyRequired":false,"lineOfBusinesses":["CAMPING"],"offeringSupport":[{"business":"CAMPING","type":"LEGACY","url":"/unifSearchInterface.do?interface=campavdetails&contractCode=EB&parkId=110453&legacy=true"}],"nonClientFacility":false},"logoSrc":null},{"type":"camping","namingId":"SLST_750216","namingLabel":"PORTOLA REDWOODS SP","id":750216,"name":"PORTOLA REDWOODS SP","targetItem":false,"matchingFilters":true,"reservableType":null,"available":false,"proximity":13.12,"summary":null,"details":{"id":750216,"contrCode":"SLST","stateCodes":["CA"],"name":"PORTOLA REDWOODS SP","baseURL":null,"imageURL":null,"verifiableAvailability":false,"availability":null,"affiliation":{"facilityID":0,"name":"","url":null,"agencies":[{"id":750010,"code":"CA State Parks","name":"California State Parks","logo":null,"url":null}]},"facilityTypes":["camping"],"description":null,"flexResult":null,"cta":{"caption":"label_cta_check_availability","url":null,"type":"LISTING"},"dayUse":true,"dayUseOnly":true,"ratingSupport":false,"rating":null,"actvAdvInd":null,"favoriteSupport":true,"favorite":false,"webAddress":null,"coordinates":{"latitude":37.2511111,"latitudeDec":null,"latitudeDegMinSec":null,"longitude":-122.2041667,"longitudeDec":null,"longitudeDegMinSec":null},"hiddenOnMap":false,"crossOverCustomLanding":false,"legacyRequired":false,"lineOfBusinesses":null,"offeringSupport":null,"nonClientFacility":true},"logoSrc":null},{"type":"camping","namingId":"EB_110028","namingLabel":"Sunol","id":110028,"name":"Sunol","targetItem":false,"matchingFilters":true,"reservableType":null,"available":false,"proximity":15.06,"summary":null,"details":{"id":110028,"contrCode":"EB","stateCodes":["CA"],"name":"Sunol","baseURL":"/camping/sunol/r/facilityDetails.do?contractCode=EB&parkId=110028","imageURL":null,"verifiableAvailability":true,"availability":null,"affiliation":{"facilityID":0,"name":"","url":null,"agencies":[{"id":110000,"code":"East Bay Parks","name":"East Bay Parks","logo":null,"url":null}]},"facilityTypes":["camping"],"description":null,"flexResult":null,"cta":{"caption":"label_cta_check_availability","url":null,"type":"REGULAR"},"dayUse":false,"dayUseOnly":false,"ratingSupport":false,"rating":null,"actvAdvInd":null,"favoriteSupport":true,"favorite":false,"webAddress":"www.ebparks.org/parks/sunol","coordinates":{"latitude":37.5152778,"latitudeDec":null,"latitudeDegMinSec":null,"longitude":-121.8327778,"longitudeDec":null,"longitudeDegMinSec":null},"hiddenOnMap":false,"crossOverCustomLanding":false,"legacyRequired":false,"lineOfBusinesses":["CAMPING"],"offeringSupport":[{"business":"CAMPING","type":"LEGACY","url":"/unifSearchInterface.do?interface=campavdetails&contractCode=EB&parkId=110028&legacy=true"}],"nonClientFacility":false},"logoSrc":null},{"type":"camping","namingId":"EB_110454","namingLabel":"Garin Regional Park","id":110454,"name":"Garin Regional Park","targetItem":false,"matchingFilters":true,"reservableType":null,"available":false,"proximity":15.41,"summary":null,"details":{"id":110454,"contrCode":"EB","stateCodes":["CA"],"name":"Garin Regional Park","baseURL":"/camping/garin-regional-park/r/facilityDetails.do?contractCode=EB&parkId=110454","imageURL":"/webphotos/EB/pid110454/0/180x120.jpg","verifiableAvailability":true,"availability":null,"affiliation":{"facilityID":0,"name":"","url":null,"agencies":[{"id":110000,"code":"East Bay Parks","name":"East Bay Parks","logo":null,"url":null}]},"facilityTypes":["camping"],"description":null,"flexResult":null,"cta":{"caption":"label_cta_check_availability","url":null,"type":"REGULAR"},"dayUse":false,"dayUseOnly":false,"ratingSupport":false,"rating":null,"actvAdvInd":null,"favoriteSupport":true,"favorite":false,"webAddress":"www.ebparks.org/parks/garin","coordinates":{"latitude":37.629375,"latitudeDec":null,"latitudeDegMinSec":null,"longitude":-122.0288583,"longitudeDec":null,"longitudeDegMinSec":null},"hiddenOnMap":false,"crossOverCustomLanding":false,"legacyRequired":false,"lineOfBusinesses":["CAMPING"],"offeringSupport":[{"business":"CAMPING","type":"LEGACY","url":"/unifSearchInterface.do?interface=campavdetails&contractCode=EB&parkId=110454&legacy=true"}],"nonClientFacility":false},"logoSrc":null},{"type":"camping","namingId":"SLST_750155","namingLabel":"BIG BASIN REDWOODS SP","id":750155,"name":"BIG BASIN REDWOODS SP","targetItem":false,"matchingFilters":true,"reservableType":null,"available":false,"proximity":17.72,"summary":null,"details":{"id":750155,"contrCode":"SLST","stateCodes":["CA"],"name":"BIG BASIN REDWOODS SP","baseURL":null,"imageURL":null,"verifiableAvailability":false,"availability":null,"affiliation":{"facilityID":0,"name":"","url":null,"agencies":[{"id":750010,"code":"CA State Parks","name":"California State Parks","logo":null,"url":null}]},"facilityTypes":["camping"],"description":null,"flexResult":null,"cta":{"caption":"label_cta_check_availability","url":null,"type":"LISTING"},"dayUse":true,"dayUseOnly":true,"ratingSupport":false,"rating":null,"actvAdvInd":null,"favoriteSupport":true,"favorite":false,"webAddress":null,"coordinates":{"latitude":37.1852778,"latitudeDec":null,"latitudeDegMinSec":null,"longitude":-122.2286111,"longitudeDec":null,"longitudeDegMinSec":null},"hiddenOnMap":false,"crossOverCustomLanding":false,"legacyRequired":false,"lineOfBusinesses":null,"offeringSupport":null,"nonClientFacility":true},"logoSrc":null},{"type":"camping","namingId":"SLST_750245","namingLabel":"BIG BASIN TENT CABINS.","id":750245,"name":"BIG BASIN TENT CABINS.","targetItem":false,"matchingFilters":true,"reservableType":null,"available":false,"proximity":17.72,"summary":null,"details":{"id":750245,"contrCode":"SLST","stateCodes":["CA"],"name":"BIG BASIN TENT CABINS.","baseURL":null,"imageURL":null,"verifiableAvailability":false,"availability":null,"affiliation":{"facilityID":0,"name":"","url":null,"agencies":[{"id":750010,"code":"CA State Parks","name":"California State Parks","logo":null,"url":null}]},"facilityTypes":["camping"],"description":null,"flexResult":null,"cta":{"caption":"label_cta_check_availability","url":null,"type":"LISTING"},"dayUse":true,"dayUseOnly":true,"ratingSupport":false,"rating":null,"actvAdvInd":null,"favoriteSupport":true,"favorite":false,"webAddress":null,"coordinates":{"latitude":37.1852778,"latitudeDec":null,"latitudeDegMinSec":null,"longitude":-122.2286111,"longitudeDec":null,"longitudeDegMinSec":null},"hiddenOnMap":false,"crossOverCustomLanding":false,"legacyRequired":false,"lineOfBusinesses":null,"offeringSupport":null,"nonClientFacility":true},"logoSrc":null},{"type":"camping","namingId":"SLST_750159","namingLabel":"BUTANO SP","id":750159,"name":"BUTANO SP","targetItem":false,"matchingFilters":true,"reservableType":null,"available":false,"proximity":18.06,"summary":null,"details":{"id":750159,"contrCode":"SLST","stateCodes":["CA"],"name":"BUTANO SP","baseURL":null,"imageURL":null,"verifiableAvailability":false,"availability":null,"affiliation":{"facilityID":0,"name":"","url":null,"agencies":[{"id":750010,"code":"CA State Parks","name":"California State Parks","logo":null,"url":null}]},"facilityTypes":["camping"],"description":null,"flexResult":null,"cta":{"caption":"label_cta_check_availability","url":null,"type":"LISTING"},"dayUse":true,"dayUseOnly":true,"ratingSupport":false,"rating":null,"actvAdvInd":null,"favoriteSupport":true,"favorite":false,"webAddress":null,"coordinates":{"latitude":37.2227778,"latitudeDec":null,"latitudeDegMinSec":null,"longitude":-122.3022222,"longitudeDec":null,"longitudeDegMinSec":null},"hiddenOnMap":false,"crossOverCustomLanding":false,"legacyRequired":false,"lineOfBusinesses":null,"offeringSupport":null,"nonClientFacility":true},"logoSrc":null},{"type":"camping","namingId":"SLST_750253","namingLabel":"LITTLE BASIN STATE PARK","id":750253,"name":"LITTLE BASIN STATE PARK","targetItem":false,"matchingFilters":true,"reservableType":null,"available":false,"proximity":18.98,"summary":null,"details":{"id":750253,"contrCode":"SLST","stateCodes":["CA"],"name":"LITTLE BASIN STATE PARK","baseURL":null,"imageURL":null,"verifiableAvailability":false,"availability":null,"affiliation":{"facilityID":0,"name":"","url":null,"agencies":[{"id":750010,"code":"CA State Parks","name":"California State Parks","logo":null,"url":null}]},"facilityTypes":["camping"],"description":null,"flexResult":null,"cta":{"caption":"label_cta_check_availability","url":null,"type":"LISTING"},"dayUse":true,"dayUseOnly":true,"ratingSupport":false,"rating":null,"actvAdvInd":null,"favoriteSupport":true,"favorite":false,"webAddress":null,"coordinates":{"latitude":37.1553333,"latitudeDec":null,"latitudeDegMinSec":null,"longitude":-122.2031667,"longitudeDec":null,"longitudeDegMinSec":null},"hiddenOnMap":false,"crossOverCustomLanding":false,"legacyRequired":false,"lineOfBusinesses":null,"offeringSupport":null,"nonClientFacility":true},"logoSrc":null},{"type":"camping","namingId":"SLST_750182","namingLabel":"HALF MOON BAY SB","id":750182,"name":"HALF MOON BAY SB","targetItem":false,"matchingFilters":true,"reservableType":null,"available":false,"proximity":20.72,"summary":null,"details":{"id":750182,"contrCode":"SLST","stateCodes":["CA"],"name":"HALF MOON BAY SB","baseURL":null,"imageURL":null,"verifiableAvailability":false,"availability":null,"affiliation":{"facilityID":0,"name":"","url":null,"agencies":[{"id":750010,"code":"CA State Parks","name":"California State Parks","logo":null,"url":null}]},"facilityTypes":["camping"],"description":null,"flexResult":null,"cta":{"caption":"label_cta_check_availability","url":null,"type":"LISTING"},"dayUse":true,"dayUseOnly":true,"ratingSupport":false,"rating":null,"actvAdvInd":null,"favoriteSupport":true,"favorite":false,"webAddress":null,"coordinates":{"latitude":37.4597222,"latitudeDec":null,"latitudeDegMinSec":null,"longitude":-122.4441667,"longitudeDec":null,"longitudeDegMinSec":null},"hiddenOnMap":false,"crossOverCustomLanding":false,"legacyRequired":false,"lineOfBusinesses":null,"offeringSupport":null,"nonClientFacility":true},"logoSrc":null},{"type":"camping","namingId":"EB_110004","namingLabel":"Anthony Chabot","id":110004,"name":"Anthony Chabot","targetItem":false,"matchingFilters":true,"reservableType":null,"available":false,"proximity":22.59,"summary":null,"details":{"id":110004,"contrCode":"EB","stateCodes":["CA"],"name":"Anthony Chabot","baseURL":"/camping/anthony-chabot/r/facilityDetails.do?contractCode=EB&parkId=110004","imageURL":"/webphotos/EB/pid110004/0/180x120.jpg","verifiableAvailability":true,"availability":null,"affiliation":{"facilityID":0,"name":"","url":null,"agencies":[{"id":110000,"code":"East Bay Parks","name":"East Bay Parks","logo":null,"url":null}]},"facilityTypes":["camping"],"description":null,"flexResult":null,"cta":{"caption":"label_cta_check_availability","url":null,"type":"REGULAR"},"dayUse":false,"dayUseOnly":false,"ratingSupport":false,"rating":null,"actvAdvInd":null,"favoriteSupport":true,"favorite":false,"webAddress":"www.ebparks/org/parks/anthony_chabot","coordinates":{"latitude":37.7352778,"latitudeDec":null,"latitudeDegMinSec":null,"longitude":-122.0961111,"longitudeDec":null,"longitudeDegMinSec":null},"hiddenOnMap":false,"crossOverCustomLanding":false,"legacyRequired":false,"lineOfBusinesses":["CAMPING"],"offeringSupport":[{"business":"CAMPING","type":"LEGACY","url":"/unifSearchInterface.do?interface=campavdetails&contractCode=EB&parkId=110004&legacy=true"}],"nonClientFacility":false},"logoSrc":null},{"type":"camping","namingId":"KOAI_730507","namingLabel":"Santa Cruz North / Costanoa KOA","id":730507,"name":"Santa Cruz North / Costanoa KOA","targetItem":false,"matchingFilters":true,"reservableType":null,"available":false,"proximity":23.22,"summary":null,"details":{"id":730507,"contrCode":"KOAI","stateCodes":["CA"],"name":"Santa Cruz North / Costanoa KOA","baseURL":"/unifSearchInterface.do?interface=camping&contractCode=KOAI&parkId=730507","imageURL":"/webphotos/KOAI/pid730507/0/180x120.jpg","verifiableAvailability":false,"availability":null,"affiliation":{"facilityID":0,"name":"","url":null,"agencies":[{"id":730001,"code":"KOA Campground","name":"KOA Campground","logo":null,"url":null}]},"facilityTypes":["camping"],"description":null,"flexResult":null,"cta":{"caption":"label_cta_check_availability","url":"https://koa.com/campgrounds/santa-cruz-north/","type":"LISTING"},"dayUse":false,"dayUseOnly":false,"ratingSupport":false,"rating":null,"actvAdvInd":null,"favoriteSupport":true,"favorite":false,"webAddress":"https://koa.com/campgrounds/santa-cruz-north/","coordinates":{"latitude":37.1551389,"latitudeDec":null,"latitudeDegMinSec":null,"longitude":-122.3481472,"longitudeDec":null,"longitudeDegMinSec":null},"hiddenOnMap":false,"crossOverCustomLanding":false,"legacyRequired":false,"lineOfBusinesses":["CAMPING"],"offeringSupport":[{"business":"CAMPING","type":"LEGACY","url":"/unifSearchInterface.do?interface=campavdetails&contractCode=KOAI&parkId=730507&legacy=true"}],"nonClientFacility":false},"logoSrc":null},{"type":"camping","namingId":"EB_110003","namingLabel":"Del Valle","id":110003,"name":"Del Valle","targetItem":false,"matchingFilters":true,"reservableType":null,"available":false,"proximity":23.86,"summary":null,"details":{"id":110003,"contrCode":"EB","stateCodes":["CA"],"name":"Del Valle","baseURL":"/camping/del-valle/r/facilityDetails.do?contractCode=EB&parkId=110003","imageURL":"/webphotos/EB/pid110003/0/180x120.jpg","verifiableAvailability":true,"availability":null,"affiliation":{"facilityID":0,"name":"","url":null,"agencies":[{"id":110000,"code":"East Bay Parks","name":"East Bay Parks","logo":null,"url":null}]},"facilityTypes":["camping"],"description":null,"flexResult":null,"cta":{"caption":"label_cta_check_availability","url":null,"type":"REGULAR"},"dayUse":false,"dayUseOnly":false,"ratingSupport":false,"rating":null,"actvAdvInd":null,"favoriteSupport":true,"favorite":false,"webAddress":null,"coordinates":{"latitude":37.5691667,"latitudeDec":null,"latitudeDegMinSec":null,"longitude":-121.6872222,"longitudeDec":null,"longitudeDegMinSec":null},"hiddenOnMap":false,"crossOverCustomLanding":false,"legacyRequired":false,"lineOfBusinesses":["CAMPING"],"offeringSupport":[{"business":"CAMPING","type":"LEGACY","url":"/unifSearchInterface.do?interface=campavdetails&contractCode=EB&parkId=110003&legacy=true"}],"nonClientFacility":false},"logoSrc":null},{"type":"camping","namingId":"INDP_721038","namingLabel":"Coyote Valley RV Resort","id":721038,"name":"Coyote Valley RV Resort","targetItem":false,"matchingFilters":true,"reservableType":null,"available":false,"proximity":24.86,"summary":null,"details":{"id":721038,"contrCode":"INDP","stateCodes":["CA"],"name":"Coyote Valley RV Resort","baseURL":"/unifSearchInterface.do?interface=camping&contractCode=INDP&parkId=721038","imageURL":"/webphotos/INDP/pid721038/0/180x120.jpg","verifiableAvailability":false,"availability":null,"affiliation":{"facilityID":0,"name":"","url":null,"agencies":[{"id":720011,"code":"Good Sam Park","name":"Good Sam Park","logo":null,"url":null}]},"facilityTypes":["camping"],"description":null,"flexResult":null,"cta":{"caption":"label_cta_check_availability","url":"https://www.goodsam.com/campgrounds-rv-parks/details/default.aspx?cgid=260001301&utm_source=Reserve%20America&utm_medium=referral&utm_campaign=260001301","type":"LISTING"},"dayUse":false,"dayUseOnly":false,"ratingSupport":false,"rating":null,"actvAdvInd":null,"favoriteSupport":true,"favorite":false,"webAddress":"https://www.goodsam.com/campgrounds-rv-parks/details/default.aspx?cgid=260001301&utm_source=Reserve%20America&utm_medium=referral&utm_campaign=260001301","coordinates":{"latitude":37.1913889,"latitudeDec":null,"latitudeDegMinSec":null,"longitude":-121.7130972,"longitudeDec":null,"longitudeDegMinSec":null},"hiddenOnMap":false,"crossOverCustomLanding":false,"legacyRequired":false,"lineOfBusinesses":["CAMPING"],"offeringSupport":[{"business":"CAMPING","type":"LEGACY","url":"/unifSearchInterface.do?interface=campavdetails&contractCode=INDP&parkId=721038&legacy=true"}],"nonClientFacility":false},"logoSrc":null},{"type":"camping","namingId":"ELSI_740123","namingLabel":"Santa Cruz Ranch RV Resort","id":740123,"name":"Santa Cruz Ranch RV Resort","targetItem":false,"matchingFilters":true,"reservableType":null,"available":false,"proximity":25.21,"summary":null,"details":{"id":740123,"contrCode":"ELSI","stateCodes":["CA"],"name":"Santa Cruz Ranch RV Resort","baseURL":"/unifSearchInterface.do?interface=camping&contractCode=ELSI&parkId=740123","imageURL":"/webphotos/ELSI/pid740123/0/180x120.jpg","verifiableAvailability":false,"availability":null,"affiliation":{"facilityID":0,"name":"","url":null,"agencies":[{"id":740001,"code":"ELS Agency","name":"Encore","logo":null,"url":null}]},"facilityTypes":["camping"],"description":null,"flexResult":null,"cta":{"caption":"label_cta_check_availability","url":"http://www.rvonthego.com/california/santa-cruz-ranch-rv-resort/?utm_source=Reserve%20America&utm_medium=directory&utm_campaign=Reserve%20America%20Directory","type":"LISTING"},"dayUse":false,"dayUseOnly":false,"ratingSupport":false,"rating":null,"actvAdvInd":null,"favoriteSupport":true,"favorite":false,"webAddress":"http://www.rvonthego.com/california/santa-cruz-ranch-rv-resort/?utm_source=Reserve%20America&utm_medium=directory&utm_campaign=Reserve%20America%20Directory","coordinates":{"latitude":37.0476833,"latitudeDec":null,"latitudeDegMinSec":null,"longitude":-122.0140917,"longitudeDec":null,"longitudeDegMinSec":null},"hiddenOnMap":false,"crossOverCustomLanding":false,"legacyRequired":false,"lineOfBusinesses":["CAMPING"],"offeringSupport":[{"business":"CAMPING","type":"LEGACY","url":"/unifSearchInterface.do?interface=campavdetails&contractCode=ELSI&parkId=740123&legacy=true"}],"nonClientFacility":false},"logoSrc":null},{"type":"camping","namingId":"SLST_750184","namingLabel":"HENRY COWELL REDWOODS SP","id":750184,"name":"HENRY COWELL REDWOODS SP","targetItem":false,"matchingFilters":true,"reservableType":null,"available":false,"proximity":26.7,"summary":null,"details":{"id":750184,"contrCode":"SLST","stateCodes":["CA"],"name":"HENRY COWELL REDWOODS SP","baseURL":null,"imageURL":null,"verifiableAvailability":false,"availability":null,"affiliation":{"facilityID":0,"name":"","url":null,"agencies":[{"id":750010,"code":"CA State Parks","name":"California State Parks","logo":null,"url":null}]},"facilityTypes":["camping"],"description":null,"flexResult":null,"cta":{"caption":"label_cta_check_availability","url":null,"type":"LISTING"},"dayUse":true,"dayUseOnly":true,"ratingSupport":false,"rating":null,"actvAdvInd":null,"favoriteSupport":true,"favorite":false,"webAddress":null,"coordinates":{"latitude":37.0236111,"latitudeDec":null,"latitudeDegMinSec":null,"longitude":-122.0519444,"longitudeDec":null,"longitudeDegMinSec":null},"hiddenOnMap":false,"crossOverCustomLanding":false,"legacyRequired":false,"lineOfBusinesses":null,"offeringSupport":null,"nonClientFacility":true},"logoSrc":null},{"type":"camping","namingId":"EB_110455","namingLabel":"Las Trampas Regional Wilderness","id":110455,"name":"Las Trampas Regional Wilderness","targetItem":false,"matchingFilters":true,"reservableType":null,"available":false,"proximity":27.31,"summary":null,"details":{"id":110455,"contrCode":"EB","stateCodes":["CA"],"name":"Las Trampas Regional Wilderness","baseURL":"/camping/las-trampas-regional-wilderness/r/facilityDetails.do?contractCode=EB&parkId=110455","imageURL":null,"verifiableAvailability":true,"availability":null,"affiliation":{"facilityID":0,"name":"","url":null,"agencies":[{"id":110000,"code":"East Bay Parks","name":"East Bay Parks","logo":null,"url":null}]},"facilityTypes":["camping"],"description":null,"flexResult":null,"cta":{"caption":"label_cta_check_availability","url":null,"type":"REGULAR"},"dayUse":false,"dayUseOnly":false,"ratingSupport":false,"rating":null,"actvAdvInd":null,"favoriteSupport":true,"favorite":false,"webAddress":"www.ebparks.org/parks/las_trampas","coordinates":{"latitude":37.8038889,"latitudeDec":null,"latitudeDegMinSec":null,"longitude":-122.0575,"longitudeDec":null,"longitudeDegMinSec":null},"hiddenOnMap":false,"crossOverCustomLanding":false,"legacyRequired":false,"lineOfBusinesses":["CAMPING"],"offeringSupport":[{"business":"CAMPING","type":"LEGACY","url":"/unifSearchInterface.do?interface=campavdetails&contractCode=EB&parkId=110455&legacy=true"}],"nonClientFacility":false},"logoSrc":null},{"type":"camping","namingId":"ELSI_740179","namingLabel":"San Francisco RV Resort","id":740179,"name":"San Francisco RV Resort","targetItem":false,"matchingFilters":true,"reservableType":null,"available":false,"proximity":28.26,"summary":null,"details":{"id":740179,"contrCode":"ELSI","stateCodes":["CA"],"name":"San Francisco RV Resort","baseURL":"/unifSearchInterface.do?interface=camping&contractCode=ELSI&parkId=740179","imageURL":"/webphotos/ELSI/pid740179/0/180x120.jpg","verifiableAvailability":false,"availability":null,"affiliation":{"facilityID":0,"name":"","url":null,"agencies":[{"id":740001,"code":"ELS Agency","name":"Encore","logo":null,"url":null}]},"facilityTypes":["camping"],"description":null,"flexResult":null,"cta":{"caption":"label_cta_check_availability","url":"http://www.rvonthego.com/california/san-francisco-rv-resort/?utm_source=Reserve%20America&utm_medium=directory&utm_campaign=Reserve%20America%20Directory","type":"LISTING"},"dayUse":false,"dayUseOnly":false,"ratingSupport":false,"rating":null,"actvAdvInd":null,"favoriteSupport":true,"favorite":false,"webAddress":"http://www.rvonthego.com/california/san-francisco-rv-resort/?utm_source=Reserve%20America&utm_medium=directory&utm_campaign=Reserve%20America%20Directory","coordinates":{"latitude":37.6460583,"latitudeDec":null,"latitudeDegMinSec":null,"longitude":-122.4921972,"longitudeDec":null,"longitudeDegMinSec":null},"hiddenOnMap":false,"crossOverCustomLanding":false,"legacyRequired":false,"lineOfBusinesses":["CAMPING"],"offeringSupport":[{"business":"CAMPING","type":"LEGACY","url":"/unifSearchInterface.do?interface=campavdetails&contractCode=ELSI&parkId=740179&legacy=true"}],"nonClientFacility":false},"logoSrc":null},{"type":"camping","namingId":"EB_110458","namingLabel":"Reinhardt Redwood Regional Park","id":110458,"name":"Reinhardt Redwood Regional Park","targetItem":false,"matchingFilters":true,"reservableType":null,"available":false,"proximity":30.02,"summary":null,"details":{"id":110458,"contrCode":"EB","stateCodes":["CA"],"name":"Reinhardt Redwood Regional Park","baseURL":"/camping/reinhardt-redwood-regional-park/r/facilityDetails.do?contractCode=EB&parkId=110458","imageURL":"/webphotos/EB/pid110458/0/180x120.jpg","verifiableAvailability":true,"availability":null,"affiliation":{"facilityID":0,"name":"","url":null,"agencies":[{"id":110000,"code":"East Bay Parks","name":"East Bay Parks","logo":null,"url":null}]},"facilityTypes":["camping"],"description":null,"flexResult":null,"cta":{"caption":"label_cta_check_availability","url":null,"type":"REGULAR"},"dayUse":false,"dayUseOnly":false,"ratingSupport":false,"rating":null,"actvAdvInd":null,"favoriteSupport":true,"favorite":false,"webAddress":"www.ebparks.org/redwood","coordinates":{"latitude":37.8313889,"latitudeDec":null,"latitudeDegMinSec":null,"longitude":-122.1997222,"longitudeDec":null,"longitudeDegMinSec":null},"hiddenOnMap":false,"crossOverCustomLanding":false,"legacyRequired":false,"lineOfBusinesses":["CAMPING"],"offeringSupport":[{"business":"CAMPING","type":"LEGACY","url":"/unifSearchInterface.do?interface=campavdetails&contractCode=EB&parkId=110458&legacy=true"}],"nonClientFacility":false},"logoSrc":null},{"type":"camping","namingId":"SLST_750207","namingLabel":"NEW BRIGHTON SB","id":750207,"name":"NEW BRIGHTON SB","targetItem":false,"matchingFilters":true,"reservableType":null,"available":false,"proximity":30.74,"summary":null,"details":{"id":750207,"contrCode":"SLST","stateCodes":["CA"],"name":"NEW BRIGHTON SB","baseURL":null,"imageURL":null,"verifiableAvailability":false,"availability":null,"affiliation":{"facilityID":0,"name":"","url":null,"agencies":[{"id":750010,"code":"CA State Parks","name":"California State Parks","logo":null,"url":null}]},"facilityTypes":["camping"],"description":null,"flexResult":null,"cta":{"caption":"label_cta_check_availability","url":null,"type":"LISTING"},"dayUse":true,"dayUseOnly":true,"ratingSupport":false,"rating":null,"actvAdvInd":null,"favoriteSupport":true,"favorite":false,"webAddress":null,"coordinates":{"latitude":36.9786111,"latitudeDec":null,"latitudeDegMinSec":null,"longitude":-121.9347222,"longitudeDec":null,"longitudeDegMinSec":null},"hiddenOnMap":false,"crossOverCustomLanding":false,"legacyRequired":false,"lineOfBusinesses":null,"offeringSupport":null,"nonClientFacility":true},"logoSrc":null},{"type":"camping","namingId":"EB_110550","namingLabel":"Sibley Volcanic Regional Preserve","id":110550,"name":"Sibley Volcanic Regional Preserve","targetItem":false,"matchingFilters":true,"reservableType":null,"available":false,"proximity":31.11,"summary":null,"details":{"id":110550,"contrCode":"EB","stateCodes":["CA"],"name":"Sibley Volcanic Regional Preserve","baseURL":"/camping/sibley-volcanic-regional-preserve/r/facilityDetails.do?contractCode=EB&parkId=110550","imageURL":"/webphotos/EB/pid110550/0/180x120.jpg","verifiableAvailability":true,"availability":null,"affiliation":{"facilityID":0,"name":"","url":null,"agencies":[{"id":110000,"code":"East Bay Parks","name":"East Bay Parks","logo":null,"url":null}]},"facilityTypes":["camping"],"description":null,"flexResult":null,"cta":{"caption":"label_cta_check_availability","url":null,"type":"REGULAR"},"dayUse":false,"dayUseOnly":false,"ratingSupport":false,"rating":null,"actvAdvInd":null,"favoriteSupport":true,"favorite":false,"webAddress":"http://www.ebparks.org/parks/sibley","coordinates":{"latitude":37.8477778,"latitudeDec":null,"latitudeDegMinSec":null,"longitude":-122.1983333,"longitudeDec":null,"longitudeDegMinSec":null},"hiddenOnMap":false,"crossOverCustomLanding":false,"legacyRequired":false,"lineOfBusinesses":["CAMPING"],"offeringSupport":[{"business":"CAMPING","type":"LEGACY","url":"/unifSearchInterface.do?interface=campavdetails&contractCode=EB&parkId=110550&legacy=true"}],"nonClientFacility":false},"logoSrc":null}],"typesSummary":{"ContractType[FEDERAL]":189,"ContractType[STATE]":62,"ContractType[REGIONAL]":0,"ContractType[COUNTY]":16,"ContractType[PRIVATE]":105,"ContractType[OTHER]":0},"actvAdvInfo":null}