{"totalRecords":253,"totalPages":13,"startIndex":0,"endIndex":20,"control":{"currentPage":0,"pageSize":20},"records":[{"type":"camping","namingId":"STAN_1040012","namingLabel":"WOODWARD RESERVOIR REGIONAL PARK","id":1040012,"name":"WOODWARD RESERVOIR REGIONAL PARK","targetItem":false,"matchingFilters":true,"reservableType":null,"available":false,"proximity":72.14,"summary":null,"details":{"id":1040012,"contrCode":"STAN","stateCodes":["CA"],"name":"WOODWARD RESERVOIR REGIONAL PARK","baseURL":"/camping/woodward-reservoir-regional-park/r/facilityDetails.do?contractCode=STAN&parkId=1040012","imageURL":"/webphotos/STAN/pid1040012/0/180x120.jpg","verifiableAvailability":true,"availability":{"available":true,"reservableType":"WEB_AVAILABLE"},"affiliation":{"facilityID":0,"name":"","url":null,"agencies":[{"id":1040000,"code":"Stanislaus Agency","name":"Stanislaus Agency","logo":null,"url":null}]},"facilityTypes":["camping"],"description":null,"flexResult":null,"cta":{"caption":"label_cta_book_now","url":null,"type":null},"dayUse":false,"dayUseOnly":false,"ratingSupport":false,"rating":null,"actvAdvInd":null,"favoriteSupport":true,"favorite":false,"webAddress":null,"coordinates":{"latitude":37.8469444,"latitudeDec":null,"latitudeDegMinSec":null,"longitude":-120.8770056,"longitudeDec":null,"longitudeDegMinSec":null},"hiddenOnMap":false,"crossOverCustomLanding":false,"legacyRequired":false,"lineOfBusinesses":["CAMPING"],"offeringSupport":[{"business":"CAMPING","type":"LEGACY","url":"/unifSearchInterface.do?interface=campavdetails&contractCode=STAN&parkId=1040012&legacy=true"}],"nonClientFacility":false},"logoSrc":null},{"type":"camping","namingId":"STAN_1040011","namingLabel":"MODESTO RESERVOIR REGIONAL PARK","id":1040011,"name":"MODESTO RESERVOIR REGIONAL PARK","targetItem":false,"matchingFilters":true,"reservableType":null,"available":false,"proximity":79.62,"summary":null,"details":{"id":1040011,"contrCode":"STAN","stateCodes":["CA"],"name":"MODESTO RESERVOIR REGIONAL PARK","baseURL":"/camping/modesto-reservoir-regional-park/r/facilityDetails.do?contractCode=STAN&parkId=1040011","imageURL":"/webphotos/STAN/pid1040011/0/180x120.jpg","verifiableAvailability":true,"availability":{"available":true,"reservableType":"WEB_AVAILABLE"},"affiliation":{"facilityID":0,"name":"","url":null,"agencies":[{"id":1040000,"code":"Stanislaus Agency","name":"Stanislaus Agency","logo":null,"url":null}]},"facilityTypes":["camping"],"description":null,"flexResult":null,"cta":{"caption":"label_cta_book_now","url":null,"type":null},"dayUse":false,"dayUseOnly":false,"ratingSupport":false,"rating":null,"actvAdvInd":null,"favoriteSupport":true,"favorite":false,"webAddress":null,"coordinates":{"latitude":37.6597222,"latitudeDec":null,"latitudeDegMinSec":null,"longitude":-120.6555556,"longitudeDec":null,"longitudeDegMinSec":null},"hiddenOnMap":false,"crossOverCustomLanding":false,"legacyRequired":false,"lineOfBusinesses":["CAMPING"],"offeringSupport":[{"business":"CAMPING","type":"LEGACY","url":"/unifSearchInterface.do?interface=campavdetails&contractCode=STAN&parkId=1040011&legacy=true"}],"nonClientFacility":false},"logoSrc":null},{"type":"camping","namingId":"SLST_750216","namingLabel":"PORTOLA REDWOODS SP","id":750216,"name":"PORTOLA REDWOODS SP","targetItem":false,"matchingFilters":true,"reservableType":null,"available":false,"proximity":13.12,"summary":null,"details":{"id":750216,"contrCode":"SLST","stateCodes":["CA"],"name":"PORTOLA REDWOODS SP","baseURL":null,"imageURL":null,"verifiableAvailability":false,"availability":null,"affiliation":{"facilityID":0,"name":"","url":null,"agencies":[{"id":750010,"code":"CA State Parks","name":"California State Parks","logo":null,"url":null}]},"facilityTypes":["camping"],"description":null,"flexResult":null,"cta":{"caption":"label_cta_check_availability","url":null,"type":"LISTING"},"dayUse":true,"dayUseOnly":true,"ratingSupport":false,"rating":null,"actvAdvInd":null,"favoriteSupport":true,"favorite":false,"webAddress":null,"coordinates":{"latitude":37.2511111,"latitudeDec":null,"latitudeDegMinSec":null,"longitude":-122.2041667,"longitudeDec":null,"longitudeDegMinSec":null},"hiddenOnMap":false,"crossOverCustomLanding":false,"legacyRequired":false,"lineOfBusinesses":null,"offeringSupport":null,"nonClientFacility":true},"logoSrc":null},{"type":"camping","namingId":"SLST_750155","namingLabel":"BIG BASIN REDWOODS SP","id":750155,"name":"BIG BASIN REDWOODS SP","targetItem":false,"matchingFilters":true,"reservableType":null,"available":false,"proximity":17.72,"summary":null,"details":{"id":750155,"contrCode":"SLST","stateCodes":["CA"],"name":"BIG BASIN REDWOODS SP","baseURL":null,"imageURL":null,"verifiableAvailability":false,"availability":null,"affiliation":{"facilityID":0,"name":"","url":null,"agencies":[{"id":750010,"code":"CA State Parks","name":"California State Parks","logo":null,"url":null}]},"facilityTypes":["camping"],"description":null,"flexResult":null,"cta":{"caption":"label_cta_check_availability","url":null,"type":"LISTING"},"dayUse":true,"dayUseOnly":true,"ratingSupport":false,"rating":null,"actvAdvInd":null,"favoriteSupport":true,"favorite":false,"webAddress":null,"coordinates":{"latitude":37.1852778,"latitudeDec":null,"latitudeDegMinSec":null,"longitude":-122.2286111,"longitudeDec":null,"longitudeDegMinSec":null},"hiddenOnMap":false,"crossOverCustomLanding":false,"legacyRequired":false,"lineOfBusinesses":null,"offeringSupport":null,"nonClientFacility":true},"logoSrc":null},{"type":"camping","namingId":"SLST_750245","namingLabel":"BIG BASIN TENT CABINS.","id":750245,"name":"BIG BASIN TENT CABINS.","targetItem":false,"matchingFilters":true,"reservableType":null,"available":false,"proximity":17.72,"summary":null,"details":{"id":750245,"contrCode":"SLST","stateCodes":["CA"],"name":"BIG BASIN TENT CABINS.","baseURL":null,"imageURL":null,"verifiableAvailability":false,"availability":null,"affiliation":{"facilityID":0,"name":"","url":null,"agencies":[{"id":750010,"code":"CA State Parks","name":"California State Parks","logo":null,"url":null}]},"facilityTypes":["camping"],"description":null,"flexResult":null,"cta":{"caption":"label_cta_check_availability","url":null,"type":"LISTING"},"dayUse":true,"dayUseOnly":true,"ratingSupport":false,"rating":null,"actvAdvInd":null,"favoriteSupport":true,"favorite":false,"webAddress":null,"coordinates":{"latitude":37.1852778,"latitudeDec":null,"latitudeDegMinSec":null,"longitude":-122.2286111,"longitudeDec":null,"longitudeDegMinSec":null},"hiddenOnMap":false,"crossOverCustomLanding":false,"legacyRequired":false,"lineOfBusinesses":null,"offeringSupport":null,"nonClientFacility":true},"logoSrc":null},{"type":"camping","namingId":"SLST_750159","namingLabel":"BUTANO SP","id":750159,"name":"BUTANO SP","targetItem":false,"matchingFilters":true,"reservableType":null,"available":false,"proximity":18.06,"summary":null,"details":{"id":750159,"contrCode":"SLST","stateCodes":["CA"],"name":"BUTANO SP","baseURL":null,"imageURL":null,"verifiableAvailability":false,"availability":null,"affiliation":{"facilityID":0,"name":"","url":null,"agencies":[{"id":750010,"code":"CA State Parks","name":"California State Parks","logo":null,"url":null}]},"facilityTypes":["camping"],"description":null,"flexResult":null,"cta":{"caption":"label_cta_check_availability","url":null,"type":"LISTING"},"dayUse":true,"dayUseOnly":true,"ratingSupport":false,"rating":null,"actvAdvInd":null,"favoriteSupport":true,"favorite":false,"webAddress":null,"coordinates":{"latitude":37.2227778,"latitudeDec":null,"latitudeDegMinSec":null,"longitude":-122.3022222,"longitudeDec":null,"longitudeDegMinSec":null},"hiddenOnMap":false,"crossOverCustomLanding":false,"legacyRequired":false,"lineOfBusinesses":null,"offeringSupport":null,"nonClientFacility":true},"logoSrc":null},{"type":"camping","namingId":"SLST_750253","namingLabel":"LITTLE BASIN STATE PARK","id":750253,"name":"LITTLE BASIN STATE PARK","targetItem":false,"matchingFilters":true,"reservableType":null,"available":false,"proximity":18.98,"summary":null,"details":{"id":750253,"contrCode":"SLST","stateCodes":["CA"],"name":"LITTLE BASIN STATE PARK","baseURL":null,"imageURL":null,"verifiableAvailability":false,"availability":null,"affiliation":{"facilityID":0,"name":"","url":null,"agencies":[{"id":750010,"code":"CA State Parks","name":"California State Parks","logo":null,"url":null}]},"facilityTypes":["camping"],"description":null,"flexResult":null,"cta":{"caption":"label_cta_check_availability","url":null,"type":"LISTING"},"dayUse":true,"dayUseOnly":true,"ratingSupport":false,"rating":null,"actvAdvInd":null,"favoriteSupport":true,"favorite":false,"webAddress":null,"coordinates":{"latitude":37.1553333,"latitudeDec":null,"latitudeDegMinSec":null,"longitude":-122.2031667,"longitudeDec":null,"longitudeDegMinSec":null},"hiddenOnMap":false,"crossOverCustomLanding":false,"legacyRequired":false,"lineOfBusinesses":null,"offeringSupport":null,"nonClientFacility":true},"logoSrc":null},{"type":"camping","namingId":"SLST_750182","namingLabel":"HALF MOON BAY SB","id":750182,"name":"HALF MOON BAY SB","targetItem":false,"matchingFilters":true,"reservableType":null,"available":false,"proximity":20.72,"summary":null,"details":{"id":750182,"contrCode":"SLST","stateCodes":["CA"],"name":"HALF MOON BAY SB","baseURL":null,"imageURL":null,"verifiableAvailability":false,"availability":null,"affiliation":{"facilityID":0,"name":"","url":null,"agencies":[{"id":750010,"code":"CA State Parks","name":"California State Parks","logo":null,"url":null}]},"facilityTypes":["camping"],"description":null,"flexResult":null,"cta":{"caption":"label_cta_check_availability","url":null,"type":"LISTING"},"dayUse":true,"dayUseOnly":true,"ratingSupport":false,"rating":null,"actvAdvInd":null,"favoriteSupport":true,"favorite":false,"webAddress":null,"coordinates":{"latitude":37.4597222,"latitudeDec":null,"latitudeDegMinSec":null,"longitude":-122.4441667,"longitudeDec":null,"longitudeDegMinSec":null},"hiddenOnMap":false,"crossOverCustomLanding":false,"legacyRequired":false,"lineOfBusinesses":null,"offeringSupport":null,"nonClientFacility":true},"logoSrc":null},{"type":"camping","namingId":"SLST_750184","namingLabel":"HENRY COWELL REDWOODS SP","id":750184,"name":"HENRY COWELL REDWOODS SP","targetItem":false,"matchingFilters":true,"reservableType":null,"available":false,"proximity":26.7,"summary":null,"details":{"id":750184,"contrCode":"SLST","stateCodes":["CA"],"name":"HENRY COWELL REDWOODS SP","baseURL":null,"imageURL":null,"verifiableAvailability":false,"availability":null,"affiliation":{"facilityID":0,"name":"","url":null,"agencies":[{"id":750010,"code":"CA State Parks","name":"California State Parks","logo":null,"url":null}]},"facilityTypes":["camping"],"description":null,"flexResult":null,"cta":{"caption":"label_cta_check_availability","url":null,"type":"LISTING"},"dayUse":true,"dayUseOnly":true,"ratingSupport":false,"rating":null,"actvAdvInd":null,"favoriteSupport":true,"favorite":false,"webAddress":null,"coordinates":{"latitude":37.0236111,"latitudeDec":null,"latitudeDegMinSec":null,"longitude":-122.0519444,"longitudeDec":null,"longitudeDegMinSec":null},"hiddenOnMap":false,"crossOverCustomLanding":false,"legacyRequired":false,"lineOfBusinesses":null,"offeringSupport":null,"nonClientFacility":true},"logoSrc":null},{"type":"camping","namingId":"SLST_750207","namingLabel":"NEW BRIGHTON SB","id":750207,"name":"NEW BRIGHTON SB","targetItem":false,"matchingFilters":true,"reservableType":null,"available":false,"proximity":30.74,"summary":null,"details":{"id":750207,"contrCode":"SLST","stateCodes":["CA"],"name":"NEW BRIGHTON SB","baseURL":null,"imageURL":null,"verifiableAvailability":false,"availability":null,"affiliation":{"facilityID":0,"name":"","url":null,"agencies":[{"id":750010,"code":"CA State Parks","name":"California State Parks","logo":null,"url":null}]},"facilityTypes":["camping"],"description":null,"flexResult":null,"cta":{"caption":"label_cta_check_availability","url":null,"type":"LISTING"},"dayUse":true,"dayUseOnly":true,"ratingSupport":false,"rating":null,"actvAdvInd":null,"favoriteSupport":true,"favorite":false,"webAddress":null,"coordinates":{"latitude":36.9786111,"latitudeDec":null,"latitudeDegMinSec":null,"longitude":-121.9347222,"longitudeDec":null,"longitudeDegMinSec":null},"hiddenOnMap":false,"crossOverCustomLanding":false,"legacyRequired":false,"lineOfBusinesses":null,"offeringSupport":null,"nonClientFacility":true},"logoSrc":null},{"type":"camping","namingId":"SLST_750230","namingLabel":"SEACLIFF SB","id":750230,"name":"SEACLIFF SB","targetItem":false,"matchingFilters":true,"reservableType":null,"available":false,"proximity":31.56,"summary":null,"details":{"id":750230,"contrCode":"SLST","stateCodes":["CA"],"name":"SEACLIFF SB","baseURL":null,"imageURL":null,"verifiableAvailability":false,"availability":null,"affiliation":{"facilityID":0,"name":"","url":null,"agencies":[{"id":750010,"code":"CA State Parks","name":"California State Parks","logo":null,"url":null}]},"facilityTypes":["camping"],"description":null,"flexResult":null,"cta":{"caption":"label_cta_check_availability","url":null,"type":"LISTING"},"dayUse":true,"dayUseOnly":true,"ratingSupport":false,"rating":null,"actvAdvInd":null,"favoriteSupport":true,"favorite":false,"webAddress":null,"coordinates":{"latitude":36.9713889,"latitudeDec":null,"latitudeDegMinSec":null,"longitude":-121.9111111,"longitudeDec":null,"longitudeDegMinSec":null},"hiddenOnMap":false,"crossOverCustomLanding":false,"legacyRequired":false,"lineOfBusinesses":null,"offeringSupport":null,"nonClientFacility":true},"logoSrc":null},{"type":"camping","namingId":"SLST_750204","namingLabel":"MT. DIABLO SP","id":750204,"name":"MT. DIABLO SP","targetItem":false,"matchingFilters":true,"reservableType":null,"available":false,"proximity":32.33,"summary":null,"details":{"id":750204,"contrCode":"SLST","stateCodes":["CA"],"name":"MT. DIABLO SP","baseURL":null,"imageURL":null,"verifiableAvailability":false,"availability":null,"affiliation":{"facilityID":0,"name":"","url":null,"agencies":[{"id":750010,"code":"CA State Parks","name":"California State Parks","logo":null,"url":null}]},"facilityTypes":["camping"],"description":null,"flexResult":null,"cta":{"caption":"label_cta_check_availability","url":null,"type":"LISTING"},"dayUse":true,"dayUseOnly":true,"ratingSupport":false,"rating":null,"actvAdvInd":null,"favoriteSupport":true,"favorite":false,"webAddress":null,"coordinates":{"latitude":37.8627778,"latitudeDec":null,"latitudeDegMinSec":null,"longitude":-121.93,"longitudeDec":null,"longitudeDegMinSec":null},"hiddenOnMap":false,"crossOverCustomLanding":false,"legacyRequired":false,"lineOfBusinesses":null,"offeringSupport":null,"nonClientFacility":true},"logoSrc":null},{"type":"camping","namingId":"SLST_750244","namingLabel":"HENRY W COE SP","id":750244,"name":"HENRY W COE SP","targetItem":false,"matchingFilters":true,"reservableType":null,"available":false,"proximity":32.83,"summary":null,"details":{"id":750244,"contrCode":"SLST","stateCodes":["CA"],"name":"HENRY W COE SP","baseURL":null,"imageURL":null,"verifiableAvailability":false,"availability":null,"affiliation":{"facilityID":0,"name":"","url":null,"agencies":[{"id":750010,"code":"CA State Parks","name":"California State Parks","logo":null,"url":null}]},"facilityTypes":["camping"],"description":null,"flexResult":null,"cta":{"caption":"label_cta_check_availability","url":null,"type":"LISTING"},"dayUse":true,"dayUseOnly":true,"ratingSupport":false,"rating":null,"actvAdvInd":null,"favoriteSupport":true,"favorite":false,"webAddress":null,"coordinates":{"latitude":37.18,"latitudeDec":null,"latitudeDegMinSec":null,"longitude":-121.55,"longitudeDec":null,"longitudeDegMinSec":null},"hiddenOnMap":false,"crossOverCustomLanding":false,"legacyRequired":false,"lineOfBusinesses":null,"offeringSupport":null,"nonClientFacility":true},"logoSrc":null},{"type":"camping","namingId":"SLST_750196","namingLabel":"MANRESA SB","id":750196,"name":"MANRESA SB","targetItem":false,"matchingFilters":true,"reservableType":null,"available":false,"proximity":35.62,"summary":null,"details":{"id":750196,"contrCode":"SLST","stateCodes":["CA"],"name":"MANRESA SB","baseURL":null,"imageURL":null,"verifiableAvailability":false,"availability":null,"affiliation":{"facilityID":0,"name":"","url":null,"agencies":[{"id":750010,"code":"CA State Parks","name":"California State Parks","logo":null,"url":null}]},"facilityTypes":["camping"],"description":null,"flexResult":null,"cta":{"caption":"label_cta_check_availability","url":null,"type":"LISTING"},"dayUse":true,"dayUseOnly":true,"ratingSupport":false,"rating":null,"actvAdvInd":null,"favoriteSupport":true,"favorite":false,"webAddress":null,"coordinates":{"latitude":36.9241667,"latitudeDec":null,"latitudeDegMinSec":null,"longitude":-121.8555556,"longitudeDec":null,"longitudeDegMinSec":null},"hiddenOnMap":false,"crossOverCustomLanding":false,"legacyRequired":false,"lineOfBusinesses":null,"offeringSupport":null,"nonClientFacility":true},"logoSrc":null},{"type":"camping","namingId":"SLST_750151","namingLabel":"ANGEL ISLAND SP","id":750151,"name":"ANGEL ISLAND SP","targetItem":false,"matchingFilters":true,"reservableType":null,"available":false,"proximity":37.09,"summary":null,"details":{"id":750151,"contrCode":"SLST","stateCodes":["CA"],"name":"ANGEL ISLAND SP","baseURL":null,"imageURL":null,"verifiableAvailability":false,"availability":null,"affiliation":{"facilityID":0,"name":"","url":null,"agencies":[{"id":750010,"code":"CA State Parks","name":"California State Parks","logo":null,"url":null}]},"facilityTypes":["camping"],"description":null,"flexResult":null,"cta":{"caption":"label_cta_check_availability","url":null,"type":"LISTING"},"dayUse":true,"dayUseOnly":true,"ratingSupport":false,"rating":null,"actvAdvInd":null,"favoriteSupport":true,"favorite":false,"webAddress":null,"coordinates":{"latitude":37.8641667,"latitudeDec":null,"latitudeDegMinSec":null,"longitude":-122.4308333,"longitudeDec":null,"longitudeDegMinSec":null},"hiddenOnMap":false,"crossOverCustomLanding":false,"legacyRequired":false,"lineOfBusinesses":null,"offeringSupport":null,"nonClientFacility":true},"logoSrc":null},{"type":"camping","namingId":"FLST_752208","namingLabel":"KIRBY COVE CAMPGROUND","id":752208,"name":"KIRBY COVE CAMPGROUND","targetItem":false,"matchingFilters":true,"reservableType":null,"available":false,"proximity":37.55,"summary":null,"details":{"id":752208,"contrCode":"FLST","stateCodes":["CA"],"name":"KIRBY COVE CAMPGROUND","baseURL":null,"imageURL":null,"verifiableAvailability":false,"availability":null,"affiliation":{"facilityID":0,"name":"","url":null,"agencies":[{"id":751940,"code":"NPS","name":"NPS","logo":null,"url":null}]},"facilityTypes":["camping"],"description":null,"flexResult":null,"cta":{"caption":"label_cta_check_availability","url":null,"type":"LISTING"},"dayUse":true,"dayUseOnly":true,"ratingSupport":false,"rating":null,"actvAdvInd":null,"favoriteSupport":true,"favorite":false,"webAddress":null,"coordinates":{"latitude":37.84035,"latitudeDec":null,"latitudeDegMinSec":null,"longitude":-122.4888889,"longitudeDec":null,"longitudeDegMinSec":null},"hiddenOnMap":false,"crossOverCustomLanding":false,"legacyRequired":false,"lineOfBusinesses":null,"offeringSupport":null,"nonClientFacility":true},"logoSrc":null},{"type":"camping","namingId":"FLST_752142","namingLabel":"BICENTENNIAL CAMPGROUND","id":752142,"name":"BICENTENNIAL CAMPGROUND","targetItem":false,"matchingFilters":true,"reservableType":null,"available":false,"proximity":38.27,"summary":null,"details":{"id":752142,"contrCode":"FLST","stateCodes":["CA"],"name":"BICENTENNIAL CAMPGROUND","baseURL":null,"imageURL":null,"verifiableAvailability":false,"availability":null,"affiliation":{"facilityID":0,"name":"","url":null,"agencies":[{"id":751940,"code":"NPS","name":"NPS","logo":null,"url":null}]},"facilityTypes":["camping"],"description":null,"flexResult":null,"cta":{"caption":"label_cta_check_availability","url":null,"type":"LISTING"},"dayUse":true,"dayUseOnly":true,"ratingSupport":false,"rating":null,"actvAdvInd":null,"favoriteSupport":true,"favorite":false,"webAddress":null,"coordinates":{"latitude":37.8308917,"latitudeDec":null,"latitudeDegMinSec":null,"longitude":-122.5246639,"longitudeDec":null,"longitudeDegMinSec":null},"hiddenOnMap":false,"crossOverCustomLanding":false,"legacyRequired":false,"lineOfBusinesses":null,"offeringSupport":null,"nonClientFacility":true},"logoSrc":null},{"type":"camping","namingId":"SLST_750237","namingLabel":"SUNSET SB","id":750237,"name":"SUNSET SB","targetItem":false,"matchingFilters":true,"reservableType":null,"available":false,"proximity":38.91,"summary":null,"details":{"id":750237,"contrCode":"SLST","stateCodes":["CA"],"name":"SUNSET SB","baseURL":null,"imageURL":null,"verifiableAvailability":false,"availability":null,"affiliation":{"facilityID":0,"name":"","url":null,"agencies":[{"id":750010,"code":"CA State Parks","name":"California State Parks","logo":null,"url":null}]},"facilityTypes":["camping"],"description":null,"flexResult":null,"cta":{"caption":"label_cta_check_availability","url":null,"type":"LISTING"},"dayUse":true,"dayUseOnly":true,"ratingSupport":false,"rating":null,"actvAdvInd":null,"favoriteSupport":true,"favorite":false,"webAddress":null,"coordinates":{"latitude":36.8816667,"latitudeDec":null,"latitudeDegMinSec":null,"longitude":-121.8272222,"longitudeDec":null,"longitudeDegMinSec":null},"hiddenOnMap":false,"crossOverCustomLanding":false,"legacyRequired":false,"lineOfBusinesses":null,"offeringSupport":null,"nonClientFacility":true},"logoSrc":null},{"type":"camping","namingId":"FLST_752134","namingLabel":"Commercial Carrier Parking at Muir Woods","id":752134,"name":"Commercial Carrier Parking at Muir Woods","targetItem":false,"matchingFilters":true,"reservableType":null,"available":false,"proximity":43.23,"summary":null,"details":{"id":752134,"contrCode":"FLST","stateCodes":["CA"],"name":"Commercial Carrier Parking at Muir Woods","baseURL":null,"imageURL":null,"verifiableAvailability":false,"availability":null,"affiliation":{"facilityID":0,"name":"","url":null,"agencies":[{"id":751940,"code":"NPS","name":"NPS","logo":null,"url":null}]},"facilityTypes":["camping"],"description":null,"flexResult":null,"cta":{"caption":"label_cta_check_availability","url":null,"type":"LISTING"},"dayUse":true,"dayUseOnly":true,"ratingSupport":false,"rating":null,"actvAdvInd":null,"favoriteSupport":true,"favorite":false,"webAddress":null,"coordinates":{"latitude":37.8928333,"latitudeDec":null,"latitudeDegMinSec":null,"longitude":-122.5724167,"longitudeDec":null,"longitudeDegMinSec":null},"hiddenOnMap":false,"crossOverCustomLanding":false,"legacyRequired":false,"lineOfBusinesses":null,"offeringSupport":null,"nonClientFacility":true},"logoSrc":null},{"type":"camping","namingId":"SLST_750206","namingLabel":"MOUNT TAMALPAIS SP","id":750206,"name":"MOUNT TAMALPAIS SP","targetItem":false,"matchingFilters":true,"reservableType":null,"available":false,"proximity":44.61,"summary":null,"details":{"id":750206,"contrCode":"SLST","stateCodes":["CA"],"name":"MOUNT TAMALPAIS SP","baseURL":null,"imageURL":null,"verifiableAvailability":false,"availability":null,"affiliation":{"facilityID":0,"name":"","url":null,"agencies":[{"id":750010,"code":"CA State Parks","name":"California State Parks","logo":null,"url":null}]},"facilityTypes":["camping"],"description":null,"flexResult":null,"cta":{"caption":"label_cta_check_availability","url":null,"type":"LISTING"},"dayUse":true,"dayUseOnly":true,"ratingSupport":false,"rating":null,"actvAdvInd":null,"favoriteSupport":true,"favorite":false,"webAddress":null,"coordinates":{"latitude":37.9038889,"latitudeDec":null,"latitudeDegMinSec":null,"longitude":-122.595,"longitudeDec":null,"longitudeDegMinSec":null},"hiddenOnMap":false,"crossOverCustomLanding":false,"legacyRequired":false,"lineOfBusinesses":null,"offeringSupport":null,"nonClientFacility":true},"logoSrc":null}],"typesSummary":{"ContractType[FEDERAL]":189,"ContractType[STATE]":62,"ContractType[REGIONAL]":0,"ContractType[COUNTY]":2,"ContractType[PRIVATE]":0,"ContractType[OTHER]":0},"actvAdvInfo":null}